{  
   "dates":{  
      "minimum":"2014-08-26",
      "maximum":"2014-09-23"
   },
   "page":1,
   "results":[  
      {  
         "adult":false,
         "backdrop_path":null,
         "id":290553,
         "original_title":"Start Options Exit",
         "release_date":"2014-09-12",
         "poster_path":null,
         "popularity":4.08869777241565,
         "title":"Start Options Exit",
         "vote_average":7.0,
         "vote_count":1
      }
   ],
   "total_pages":2,
   "total_results":2
}
